{
  "$schema": "https://unpkg.com/@changesets/config@3.0.0/schema.json",
  "access": "restricted",
  "baseBranch": "main",
  "changelog": "@changesets/cli/changelog",
  "commit": false,
  "fixed": [],
  "ignore": [],
  "linked": [],
  "updateInternalDependencies": "patch",
  "snapshot": {
    "useCalculatedVersion": true,
    "prereleaseTemplate": "{tag}.{commit}"
  }
}
